-------------------------------------------------------------------------------
Test set: com.codesplai.maventest.AppTest
-------------------------------------------------------------------------------
Tests run: 1, Failures: 0, Errors: 0, Skipped: 0, Time elapsed: 0.215 s - in com.codesplai.maventest.AppTest
